%YAML 1.1
%TAG !u! tag:unity3d.com,2011:
--- !u!114 &11400000
MonoBehaviour:
  m_ObjectHideFlags: 0
  m_CorrespondingSourceObject: {fileID: 0}
  m_PrefabInstance: {fileID: 0}
  m_PrefabAsset: {fileID: 0}
  m_GameObject: {fileID: 0}
  m_Enabled: 1
  m_EditorHideFlags: 0
  m_Script: {fileID: 11500000, guid: d74bde9e30b5074438337146e54623a0, type: 3}
  m_Name: Food 4
  m_EditorClassIdentifier: 
  id: 664e6eb9-c715-4898-98b4-f810743a50e8
  icon: {fileID: 21300000, guid: fc34d463e8fae4b57bcf218d9c63df7a, type: 3}
  title: Soba
  description: Thin buckwheat noodles, usually served cold with a dipping sauce or
    hot in a broth.
